…
```{r}
#| eval: FALSE

[1] "garbage" "in"      "garbage" "out"  

data_sci$dont_forget[c(1, 2, 1, 3)]
```

f) 

```{r}
#| eval: FALSE

# A tibble: 234 x 2
     hwy   cty
   <int> <int>
 1    29    18
 2    29    21
 3    31    20
 4    30    21
 5    26    16
 6    26    18
 7    27    18
 8    26    18
 9    25    16
10    28    20
# … with 224 more rows
…
